<svg xmlns="http://www.w3.org/2000/svg" xmlns:xlink="http://www.w3.org/1999/xlink" width="283.218" height="327.379" viewBox="0 0 283.218 327.379">
  <defs>
    <linearGradient id="linear-gradient" x1="34.17" y1="-7.692" x2="35.225" y2="-7.692" gradientUnits="objectBoundingBox">
      <stop offset="0" stop-color="#daece5"/>
      <stop offset="1" stop-color="#b2deeb"/>
    </linearGradient>
    <linearGradient id="linear-gradient-2" x1="39.831" y1="-5.884" x2="41.064" y2="-5.884" xlink:href="#linear-gradient"/>
    <linearGradient id="linear-gradient-3" x1="-0.088" y1="0.5" x2="0.912" y2="0.5" gradientUnits="objectBoundingBox">
      <stop offset="0" stop-color="#daece5"/>
      <stop offset="1" stop-color="#f4f5eb"/>
    </linearGradient>
    <linearGradient id="linear-gradient-4" x1="0" y1="0.5" x2="1" y2="0.5" xlink:href="#linear-gradient"/>
  </defs>
  <g id="Group_112" data-name="Group 112" transform="translate(-74.561 -6.443)">
    <g id="Group_149" data-name="Group 149">
      <path id="Path_119" data-name="Path 119" d="M259.308,207.248s91.358-48.007,116.183-67.672c20.687,30.7,30.848,52.961,30.848,52.961s-104.15,74.759-114.363,70.8C283.966,255.058,284.151,255.269,259.308,207.248Z" transform="translate(-48.56 -20.108)" fill="#293737"/>
      <path id="Path_120" data-name="Path 120" d="M291.07,245.974c6.962-3.479,16.939-.192,19.524,6.143,15,2.908,82.1-49.232,82.1-49.232-.025-.039-.055-.074-.08-.113-3.978-6.176-1.325-14.958,4.723-18.678l-10.9-18.719c-6.625,3.672-14.585,1.093-18.578-5.108-.037-.056-.063-.116-.1-.173l-84.01,47.363q.425.544.8,1.134c3.978,6.176,2.007,16.129-4.04,19.85l10.306,17.695C290.906,246.085,290.981,246.018,291.07,245.974Z" transform="translate(-54.134 -25.501)" fill="url(#linear-gradient)"/>
      <circle id="Ellipse_5" data-name="Ellipse 5" cx="16.369" cy="16.369" r="16.369" transform="matrix(0.519, -0.855, 0.855, 0.519, 263.625, 185.063)" fill="#fff"/>
      <path id="Path_121" data-name="Path 121" d="M323.972,240.386a3.914,3.914,0,1,1,5.353,1.412A3.914,3.914,0,0,1,323.972,240.386Z" transform="translate(-65.416 -45.058)" fill="#0f787a"/>
      <path id="Path_122" data-name="Path 122" d="M310.077,248.479a3.914,3.914,0,1,1,5.352,1.412A3.914,3.914,0,0,1,310.077,248.479Z" transform="translate(-61.764 -47.186)" fill="#0f787a"/>
      <path id="Path_123" data-name="Path 123" d="M402.711,194.523a3.914,3.914,0,1,1,5.352,1.412A3.915,3.915,0,0,1,402.711,194.523Z" transform="translate(-86.112 -33.004)" fill="#002f4c"/>
      <path id="Path_124" data-name="Path 124" d="M389.106,202.448a3.914,3.914,0,1,1,5.352,1.412A3.914,3.914,0,0,1,389.106,202.448Z" transform="translate(-82.536 -35.087)" fill="#0f787a"/>
      <g id="Group_85" data-name="Group 85" transform="translate(269.949 161.452)">
        <text id="N" transform="translate(11.606 30.276) rotate(-28.921)" fill="#005558" font-size="24" font-family="Circular-Bold, Circular" font-weight="700"><tspan x="0" y="0">N</tspan></text>
        <g id="Group_83" data-name="Group 83" transform="translate(3.896 8.752)">
          <rect id="Rectangle_11" data-name="Rectangle 11" width="27.547" height="1.981" transform="matrix(0.864, -0.503, 0.503, 0.864, 0, 13.864)" fill="#005558"/>
        </g>
        <g id="Group_84" data-name="Group 84" transform="translate(5.196 11.809)">
          <rect id="Rectangle_12" data-name="Rectangle 12" width="27.547" height="2.138" transform="translate(0 13.864) rotate(-30.218)" fill="#005558"/>
        </g>
      </g>
    </g>
    <g id="Group_148" data-name="Group 148">
      <path id="Path_125" data-name="Path 125" d="M269.168,193.6s67.96-77.669,84.043-104.951c30.349,21.194,47.842,38.311,47.842,38.311S330.787,234.19,319.832,234.169C309.381,229.331,309.629,229.462,269.168,193.6Z" transform="translate(-51.151 -6.722)" fill="#293737"/>
      <path id="Path_126" data-name="Path 126" d="M311.21,221.372c5.243-5.751,15.735-6.275,20.427-1.3,15.043-2.685,58.883-75.48,58.883-75.48-.038-.027-.078-.049-.115-.077-5.934-4.33-6.62-13.478-2.316-19.126l-16.909-13.541c-4.859,5.81-13.213,6.27-19.17,1.921-.055-.04-.1-.086-.153-.127L290.52,188.071q.592.355,1.159.768c5.933,4.331,7.677,14.326,3.373,19.974l15.984,12.8C311.1,221.535,311.143,221.445,311.21,221.372Z" transform="translate(-56.763 -12.821)" fill="url(#linear-gradient-2)"/>
      <circle id="Ellipse_6" data-name="Ellipse 6" cx="16.369" cy="16.369" r="16.369" transform="translate(266.603 165.909) rotate(-79.854)" fill="#fff"/>
      <path id="Path_127" data-name="Path 127" d="M333.151,215.557a3.915,3.915,0,1,1,5.5-.609A3.914,3.914,0,0,1,333.151,215.557Z" transform="translate(-67.583 -38.247)" fill="#0f787a"/>
      <path id="Path_128" data-name="Path 128" d="M323.1,228.109a3.915,3.915,0,1,1,5.5-.609A3.915,3.915,0,0,1,323.1,228.109Z" transform="translate(-64.941 -41.546)" fill="#0f787a"/>
      <path id="Path_129" data-name="Path 129" d="M390.109,144.43a3.914,3.914,0,1,1,5.5-.609A3.914,3.914,0,0,1,390.109,144.43Z" transform="translate(-82.554 -19.552)" fill="#002f4c"/>
      <path id="Path_130" data-name="Path 130" d="M380.267,156.72a3.914,3.914,0,1,1,5.5-.609A3.915,3.915,0,0,1,380.267,156.72Z" transform="translate(-79.967 -22.782)" fill="#0f787a"/>
      <g id="Group_88" data-name="Group 88" transform="translate(267.38 135.599)">
        <text id="N-2" data-name="N" transform="translate(18.389 30.108) rotate(-50.014)" fill="#005558" font-size="24" font-family="Circular-Bold, Circular" font-weight="700"><tspan x="0" y="0">N</tspan></text>
        <g id="Group_86" data-name="Group 86" transform="translate(8.401 4.203)">
          <rect id="Rectangle_13" data-name="Rectangle 13" width="27.547" height="1.981" transform="matrix(0.625, -0.781, 0.781, 0.625, 0, 21.502)" fill="#005558"/>
        </g>
        <g id="Group_87" data-name="Group 87" transform="translate(10.714 6.587)">
          <rect id="Rectangle_14" data-name="Rectangle 14" width="27.547" height="2.138" transform="matrix(0.625, -0.781, 0.781, 0.625, 0, 21.502)" fill="#005558"/>
        </g>
      </g>
    </g>
    <path id="Path_132" data-name="Path 132" d="M311.055,134.783H251.712s-3.218-4.071,0-6.811a5.618,5.618,0,0,1,5.4-.911,1.777,1.777,0,0,0,2.2-1.391,7.106,7.106,0,0,1,4.667-5.158c3.143-1.273,5.13.671,6.281,2.669a.893.893,0,0,0,1.614-.164c1-3.154,4.468-7.334,15.875-7.334,14.508,0,12.9,7.713,11.6,10.918a.739.739,0,0,0,.839,1.008c2.238-.479,6.392-1.1,8.254.364C311.055,130.026,311.055,134.783,311.055,134.783Z" transform="translate(-64.498 -109.239)" fill="url(#linear-gradient-3)"/>
    <g id="Group_92" data-name="Group 92" transform="translate(74.561 150.44)">
      <g id="Group_89" data-name="Group 89" transform="translate(6.818)">
        <path id="Path_133" data-name="Path 133" d="M155.218,237.471s-22.135-52.133-61.812-55.879c-27.231,39.44,12.141,76.5,12.141,76.5l46.338,17.49Z" transform="translate(-83.81 -181.592)" fill="#46c634"/>
        <path id="Path_134" data-name="Path 134" d="M132.445,202.778l-10.569,22.784L94.585,181.7c-.313-.036-.622-.077-.937-.107-.107.156-.2.31-.309.465l14.617,23.492-23.015-3.84c-.042.218-.077.434-.116.651l-.1.577,24.105,4.022,24.359,39.15-40.607-5.451c.262.461.526.918.79,1.364l40.67,5.459,17.3,27.8.783.295.108-1.226-29.57-47.524,10.7-23.067Q132.909,203.267,132.445,202.778Z" transform="translate(-84.051 -181.592)" fill="#005558"/>
      </g>
      <g id="Group_91" data-name="Group 91" transform="translate(0 66.956)">
        <path id="Path_135" data-name="Path 135" d="M140.119,285.3s-40.258-24.78-65.558-5.6c6.087,64.546,88.62,61.359,88.62,61.359Z" transform="translate(-74.561 -272.422)" fill="#acba16"/>
        <g id="Group_90" data-name="Group 90" transform="translate(0 0.124)">
          <path id="Path_136" data-name="Path 136" d="M74.561,279.749c.024.248.052.493.077.74l56.943,29.264L99.789,324.025q.6.421,1.2.827L133,310.483l22.241,11.43-.737-1.782-43.3-22.254-8.232-25.184q-.672-.06-1.346-.1l8,24.477-34.5-17.729c-.188.136-.378.268-.565.41Z" transform="translate(-74.561 -272.59)" fill="#fff"/>
        </g>
      </g>
    </g>
    <path id="Path_137" data-name="Path 137" d="M273.331,63.074c13.818,0,25.02,10.687,25.02,23.867V309.7c0,13.181-11.2,23.867-25.02,23.867H185.119c-13.817,0-25.019-10.686-25.019-23.867V86.941c0-13.18,11.2-23.867,25.019-23.867Z" transform="translate(-22.483)" fill="#0f787a"/>
    <path id="Path_138" data-name="Path 138" d="M277.529,68.849c13.058,0,18.375,10.1,18.375,22.556V308.274c0,12.457-5.317,22.555-18.375,22.555h-92.14c-13.058,0-20.132-8.508-20.132-20.963V89.813c0-12.457,7.074-20.964,20.132-20.964Z" transform="translate(-23.839 -1.518)" fill="#fff"/>
    <path id="Path_139" data-name="Path 139" d="M293.82,86.888v228.7a12.616,12.616,0,0,1-12.541,12.689H183.8a12.616,12.616,0,0,1-12.541-12.689V86.888A12.615,12.615,0,0,1,183.8,74.2h97.479A12.615,12.615,0,0,1,293.82,86.888Z" transform="translate(-25.416 -2.924)" fill="#2c4836"/>
    <rect id="Rectangle_15" data-name="Rectangle 15" width="104.516" height="173.57" transform="translate(154.341 143.178)" fill="#0f787a"/>
    <rect id="Rectangle_16" data-name="Rectangle 16" width="105.841" height="26.613" transform="translate(152.895 108.687)" fill="#0f787a"/>
    <rect id="Rectangle_17" data-name="Rectangle 17" width="55.532" height="8.367" rx="4.183" transform="translate(180.908 68.805)" fill="#fff"/>
    <g id="Group_93" data-name="Group 93" transform="translate(179.77 173.535)">
      <circle id="Ellipse_7" data-name="Ellipse 7" cx="26.046" cy="26.046" r="26.046" transform="translate(0 9.844)" fill="#fff"/>
      <path id="Path_140" data-name="Path 140" d="M269.846,218.2a82.324,82.324,0,0,0-6.392-5.281c-3.232,17.856-13.449,38.986-17.516,38.045-3.547-.822-8.939-6.135-13.891-16.694-2.33,1.84-4.619,3.859-6.7,5.747-.7,14.584,15.614,28.109,20.787,29.307C251.539,270.577,274.029,237.229,269.846,218.2Z" transform="translate(-219.398 -212.921)" fill="#0f787a"/>
    </g>
    <g id="Group_94" data-name="Group 94" transform="translate(156.506 85.549)">
      <rect id="Rectangle_18" data-name="Rectangle 18" width="50.307" height="1.579" transform="translate(0.492)" fill="#fff"/>
      <rect id="Rectangle_19" data-name="Rectangle 19" width="50.307" height="1.579" transform="translate(0.492 4.73)" fill="#fff"/>
      <rect id="Rectangle_20" data-name="Rectangle 20" width="58.555" height="1.579" transform="translate(0 10.643)" fill="#fff"/>
      <rect id="Rectangle_21" data-name="Rectangle 21" width="44.507" height="1.578" transform="translate(0 15.373)" fill="#fff"/>
    </g>
    <g id="Group_95" data-name="Group 95" transform="translate(164.872 150.957)">
      <rect id="Rectangle_22" data-name="Rectangle 22" width="42.433" height="1.579" fill="#fff"/>
      <rect id="Rectangle_23" data-name="Rectangle 23" width="42.433" height="1.579" transform="translate(0 4.73)" fill="#fff"/>
      <rect id="Rectangle_24" data-name="Rectangle 24" width="50.189" height="1.579" transform="translate(0 10.643)" fill="#fff"/>
      <rect id="Rectangle_25" data-name="Rectangle 25" width="36.141" height="1.578" transform="translate(0 15.373)" fill="#fff"/>
    </g>
    <g id="Group_96" data-name="Group 96" transform="translate(212.083 259.288)">
      <rect id="Rectangle_26" data-name="Rectangle 26" width="38.299" height="1.579" transform="translate(0 0)" fill="#fff"/>
      <rect id="Rectangle_27" data-name="Rectangle 27" width="38.299" height="1.579" transform="translate(0 4.73)" fill="#fff"/>
      <rect id="Rectangle_28" data-name="Rectangle 28" width="38.299" height="1.579" transform="translate(0 10.643)" fill="#fff"/>
      <rect id="Rectangle_29" data-name="Rectangle 29" width="38.299" height="1.578" transform="translate(0 15.373)" fill="#fff"/>
    </g>
    <path id="Path_200" data-name="Path 200" d="M0,0H32.68V19.4H0Z" transform="translate(224.582 84.126)" fill="#46c634"/>
    <g id="Group_99" data-name="Group 99" transform="translate(163.398 257.492)">
      <g id="Group_97" data-name="Group 97">
        <rect id="Rectangle_31" data-name="Rectangle 31" width="38.332" height="23.123" fill="#0f787a"/>
      </g>
      <g id="Group_98" data-name="Group 98" transform="translate(0 28.92)">
        <rect id="Rectangle_32" data-name="Rectangle 32" width="38.332" height="23.123" fill="#46c634"/>
        <rect id="Rectangle_33" data-name="Rectangle 33" width="38.332" height="23.123" transform="translate(47.916)" fill="#0f787a"/>
      </g>
    </g>
    <g id="Group_111" data-name="Group 111" transform="translate(235.299 228.949)">
      <path id="Path_141" data-name="Path 141" d="M367.88,361.2l-3.545-2.228,11.061-4.932-4.578-10.426a15.105,15.105,0,0,0-12.809-8.056H335.236a15.105,15.105,0,0,0-12.809,8.056l-4.579,10.426,11.062,4.932-3.545,2.228L323.4,378.143l23.222-.364,23.222.364Z" transform="translate(-299.245 -300.569)" fill="#ffd159"/>
      <path id="Path_142" data-name="Path 142" d="M390.2,360.629l2.284,7.543a14.581,14.581,0,0,1-4.606,15.308l-10.361,8.094-3.331-9.058,5.731-5.344a5.826,5.826,0,0,0,1.421-6.684l-2.2-4.926Z" transform="translate(-314.054 -307.159)" fill="#f7a57a"/>
      <g id="Group_103" data-name="Group 103" transform="translate(0.126 95.925)">
        <path id="Path_143" data-name="Path 143" d="M330.627,424.546,321.4,425.8l-1.776-1.952.9-3.537,8.869-1.279Z" transform="translate(-299.837 -418.435)" fill="#f7a57a"/>
        <g id="Group_102" data-name="Group 102">
          <path id="Path_144" data-name="Path 144" d="M314.344,425.586l-11.614,1.432S291.3,428.5,292.945,422.2c1.592-6.083,11.853-3.384,11.853-3.384l9.545,1.153h0a4.831,4.831,0,0,0-.132,5.415Z" transform="translate(-292.783 -418.222)" fill="#0f787a"/>
          <path id="Path_145" data-name="Path 145" d="M292.945,422.258c.641-2.449,2.687-3.473,4.9-3.824v8.677C294.973,426.787,292.057,425.656,292.945,422.258Z" transform="translate(-292.783 -418.278)" fill="#a4d1bc"/>
          <g id="Group_100" data-name="Group 100" transform="translate(15.924 2.383)">
            <line id="Line_1" data-name="Line 1" y2="3.729" transform="translate(0.477)" fill="#f7a57a"/>
            <rect id="Rectangle_34" data-name="Rectangle 34" width="0.955" height="3.729" fill="#fff"/>
          </g>
          <g id="Group_101" data-name="Group 101" transform="translate(13.567 2.383)">
            <line id="Line_2" data-name="Line 2" y2="3.729" transform="translate(0.477)" fill="#f7a57a"/>
            <rect id="Rectangle_35" data-name="Rectangle 35" width="0.955" height="3.729" fill="#fff"/>
          </g>
        </g>
      </g>
      <path id="Path_146" data-name="Path 146" d="M316.969,360.629l-2.284,7.543a14.581,14.581,0,0,0,4.606,15.308l10.362,8.094,3.33-9.058-5.731-5.344a5.827,5.827,0,0,1-1.421-6.684l2.2-4.926Z" transform="translate(-298.252 -307.159)" fill="#f7a57a"/>
      <g id="Group_107" data-name="Group 107" transform="translate(64.831 95.925)">
        <path id="Path_147" data-name="Path 147" d="M380.559,425.238l9.383.561,1.776-1.952-.9-3.537-8.869-1.279Z" transform="translate(-380.559 -418.435)" fill="#f7a57a"/>
        <g id="Group_106" data-name="Group 106" transform="translate(9.383)">
          <path id="Path_148" data-name="Path 148" d="M393.287,425.586l11.615,1.432s11.433,1.484,9.784-4.816c-1.591-6.083-11.853-3.384-11.853-3.384l-9.546,1.153h0a4.828,4.828,0,0,1,.132,5.415Z" transform="translate(-393.287 -418.222)" fill="#0f787a"/>
          <path id="Path_149" data-name="Path 149" d="M420.568,422.258c-.641-2.449-2.686-3.473-4.9-3.824v8.677C418.541,426.787,421.457,425.656,420.568,422.258Z" transform="translate(-399.169 -418.278)" fill="#a4d1bc"/>
          <g id="Group_104" data-name="Group 104" transform="translate(4.684 2.383)">
            <line id="Line_3" data-name="Line 3" y2="3.729" transform="translate(0.477)" fill="#f7a57a"/>
            <rect id="Rectangle_36" data-name="Rectangle 36" width="0.955" height="3.729" fill="#fff"/>
          </g>
          <g id="Group_105" data-name="Group 105" transform="translate(7.04 2.383)">
            <line id="Line_4" data-name="Line 4" y2="3.729" transform="translate(0.477)" fill="#f7a57a"/>
            <rect id="Rectangle_37" data-name="Rectangle 37" width="0.955" height="3.729" fill="#fff"/>
          </g>
        </g>
      </g>
      <g id="Group_108" data-name="Group 108" transform="translate(29.825 64.509)">
        <rect id="Rectangle_38" data-name="Rectangle 38" width="38.28" height="22.91" fill="url(#linear-gradient-4)"/>
        <rect id="Rectangle_39" data-name="Rectangle 39" width="38.28" height="1.909" transform="translate(0 21.956)" fill="#bca9c2"/>
        <path id="Path_150" data-name="Path 150" d="M356.959,387.738a1.531,1.531,0,1,0,1.532-1.531A1.531,1.531,0,0,0,356.959,387.738Z" transform="translate(-339.35 -378.391)" fill="#fff"/>
      </g>
      <path id="Path_151" data-name="Path 151" d="M396.972,396.68c7.649,13.623-69.378,21.983-69.378,21.983l-1.306-6.068S387.541,379.883,396.972,396.68Z" transform="translate(-301.464 -315.374)" fill="#122043"/>
      <path id="Path_152" data-name="Path 152" d="M293,396.679c-6.5,14.208,70.019,22.727,70.019,22.727l.568-6.825S300.685,379.882,293,396.679Z" transform="translate(-292.612 -315.374)" fill="#002f4c"/>
      <g id="Group_110" data-name="Group 110" transform="translate(29.928 0)">
        <path id="Path_153" data-name="Path 153" d="M358.719,332.455c-.709-2.148-1.995-8.516-1.995-8.516l-8.2,1.6v6.952s2.72,1.929,5.008,1.948C356.037,334.46,358.808,332.7,358.719,332.455Z" transform="translate(-337.238 -297.516)" fill="#f18c72"/>
        <g id="Group_109" data-name="Group 109" transform="translate(4.192 6.034)">
          <path id="Path_154" data-name="Path 154" d="M356.194,305.385l-1.544-9.105L338.9,298.144l.955,10.49s1.217,12.982,9.6,11.438C358.524,318.4,356.6,305.27,356.194,305.385Z" transform="translate(-338.899 -296.28)" fill="#f7a57a"/>
        </g>
        <path id="Path_155" data-name="Path 155" d="M358.378,301.989a6.244,6.244,0,0,1,.669-3.788c2.721-4.452-1.4-5.747-2.833-6.131-1.588-.425-2.094-2.9-4.225-3.686-3.257-1.2-5.09,1.711-6.856,1.935s-3.512-1.662-5.56.289-1.172,3.769-1.693,4.821-2.658-.711-4.211,2.581c-1.182,2.5.123,3.973,1.724,4.817a6.989,6.989,0,0,0,6.02.145,27.215,27.215,0,0,0,6.318-3.838c.613-.5,5.42-.83,5.819-.148C354.9,301.3,355.014,309,355.014,309l1.4-1.964A4.984,4.984,0,0,0,358.378,301.989Z" transform="translate(-333.212 -288.094)" fill="#122043"/>
        <path id="Path_156" data-name="Path 156" d="M360.269,309.622c-.422,1.1-.17,2.217.562,2.5s1.67-.38,2.093-1.479.17-2.217-.562-2.5S360.691,308.523,360.269,309.622Z" transform="translate(-340.27 -293.347)" fill="#f7a57a"/>
      </g>
    </g>
  </g>
</svg>
