<svg xmlns="http://www.w3.org/2000/svg" xmlns:xlink="http://www.w3.org/1999/xlink" width="284.562" height="266.436" viewBox="0 0 284.562 266.436">
  <defs>
    <linearGradient id="linear-gradient" y1="0.5" x2="1" y2="0.5" gradientUnits="objectBoundingBox">
      <stop offset="0" stop-color="#daece5"/>
      <stop offset="1" stop-color="#b2deeb"/>
    </linearGradient>
    <linearGradient id="linear-gradient-3" x1="23.271" x2="24.271" xlink:href="#linear-gradient"/>
    <linearGradient id="linear-gradient-4" x1="6.41" x2="7.41" xlink:href="#linear-gradient"/>
  </defs>
  <g id="Group_147" data-name="Group 147" transform="translate(-35.114 -52.529)">
    <g id="Group_117" data-name="Group 117" transform="translate(195.425 138.113)">
      <g id="Group_113" data-name="Group 113" transform="translate(27.41)">
        <path id="Path_158" data-name="Path 158" d="M309.631,245.64s1.636-50.358,36.287-63.084c41.9,47.735-5.157,88.817-5.157,88.817Z" transform="translate(-309.631 -182.556)" fill="#53b6b9"/>
        <path id="Path_159" data-name="Path 159" d="M350.219,182.556c.146.166.286.332.43.5l-16.689,56.973,33.625-15.5c-.006.413-.017.823-.033,1.233l-34,15.672-4.816,16.44-.927-.766,9.6-32.773h0l-13.776-16.458c.18-.357.362-.713.549-1.068l13.6,16.249,11.791-40.249c.217-.084.43-.173.649-.253Z" transform="translate(-313.931 -182.556)" fill="#005558"/>
      </g>
      <g id="Group_114" data-name="Group 114" transform="translate(23.028 38.463)">
        <path id="Path_160" data-name="Path 160" d="M315.511,257.565s38.55-30.236,75.757-15.392c2.157,42.463-44.835,52.067-44.835,52.067l-43.127-8.411Z" transform="translate(-303.306 -238.073)" fill="#0f787a"/>
        <path id="Path_161" data-name="Path 161" d="M352.109,240.954l-2.649,22.123L390.511,242.7c.252.119.506.232.757.356.008.168.01.33.017.5L369.3,254.466l19.158,7.835c-.069.184-.143.364-.215.546l-.2.48-20.066-8.206-36.641,18.185,33.186,14.823q-.619.34-1.232.661l-33.238-14.847-26.018,12.913-.729-.142.491-.975,44.478-22.075,2.682-22.4Q351.53,241.106,352.109,240.954Z" transform="translate(-303.306 -238.958)" fill="#005558"/>
      </g>
      <g id="Group_116" data-name="Group 116" transform="translate(0 80.56)">
        <path id="Path_162" data-name="Path 162" d="M313.477,298.836s41.938.073,52.085,26.348c-34.694,45.872-95.494,4.978-95.494,4.978Z" transform="translate(-270.068 -298.836)" fill="#46c634"/>
        <g id="Group_115" data-name="Group 115" transform="translate(14.943 7.774)">
          <path id="Path_163" data-name="Path 163" d="M372.188,328.631c-.134.177-.269.348-.4.523l-56.62-4.471,17.337,25.6q-.647.04-1.293.064l-17.455-25.772-22.115-1.747,1.387-1,43.057,3.4,17.957-15.168q.534.269,1.063.55l-17.453,14.741,34.3,2.709c.079.191.161.379.236.573Z" transform="translate(-291.637 -310.057)" fill="#fff"/>
        </g>
      </g>
    </g>
    <g id="Group_122" data-name="Group 122" transform="translate(35.114 85.504)">
      <g id="Group_118" data-name="Group 118" transform="translate(37.237)">
        <path id="Path_166" data-name="Path 166" d="M157.723,186.232s.333-62.274-41.87-79.611c-53.982,57,2.218,109.938,2.218,109.938Z" transform="translate(-92.423 -106.621)" fill="#acba16"/>
        <path id="Path_167" data-name="Path 167" d="M115.854,106.621c-.188.2-.369.4-.555.594l17.951,71.147L92.443,157.65q-.018.765-.017,1.523l41.267,20.946,5.179,20.53,1.181-.9L129.728,158.82h0l17.784-19.683c-.206-.449-.414-.9-.628-1.345l-17.559,19.433-12.681-50.263c-.265-.114-.523-.233-.79-.343Z" transform="translate(-92.424 -106.621)" fill="#fff"/>
      </g>
      <g id="Group_119" data-name="Group 119" transform="translate(0 46.259)">
        <path id="Path_168" data-name="Path 168" d="M131.789,200.042S85.59,160.9,38.943,177.49c-4.649,52.345,52.942,66.4,52.942,66.4l53.657-8.372Z" transform="translate(-38.675 -173.391)" fill="#005558"/>
        <path id="Path_169" data-name="Path 169" d="M87.505,178.2l2.238,27.447-49.75-27.083c-.317.134-.635.263-.951.4-.018.206-.027.407-.044.611l26.645,14.505-24.029,8.782c.077.23.161.456.24.684l.22.6,25.168-9.2,44.4,24.173L69.967,235.884c.5.3,1,.592,1.491.874L113.2,219.975l31.531,17.164.906-.141-.56-1.227-53.9-29.344-2.266-27.789Q88.212,178.414,87.505,178.2Z" transform="translate(-38.775 -174.868)" fill="#53b6b9"/>
      </g>
      <g id="Group_121" data-name="Group 121" transform="translate(16.398 100.426)">
        <path id="Path_170" data-name="Path 170" d="M127.905,251.6s-51.8-1.869-65.561,30.107c40.707,58.277,117.71,10.612,117.71,10.612Z" transform="translate(-62.344 -251.576)" fill="#46c634"/>
        <g id="Group_120" data-name="Group 120" transform="translate(0.001 8.036)">
          <path id="Path_171" data-name="Path 171" d="M62.345,285.268c.157.224.316.443.474.664l70.14-2.875-22.609,30.8q.8.079,1.594.139l22.764-31.015,27.4-1.123-1.666-1.3L107.1,282.748,85.63,263.176q-.672.307-1.339.629l20.866,19.022L62.663,284.57c-.106.232-.217.461-.318.7Z" transform="translate(-62.345 -263.176)" fill="#0f787a"/>
        </g>
      </g>
    </g>
    <g id="Group_124" data-name="Group 124" transform="translate(109.556 52.529)">
      <g id="Group_123" data-name="Group 123">
        <path id="Path_172" data-name="Path 172" d="M253,59.024c13.043,0,23.616,10.087,23.616,22.527V291.811c0,12.441-10.573,22.528-23.616,22.528H169.74c-13.042,0-23.616-10.087-23.616-22.528V81.551c0-12.44,10.574-22.527,23.616-22.527Z" transform="translate(-146.124 -59.024)" fill="#002f4c"/>
        <path id="Path_173" data-name="Path 173" d="M257.275,64.823c12.326,0,17.344,9.533,17.344,21.291v204.7c0,11.758-5.018,21.289-17.344,21.289h-86.97c-12.326,0-19-8.03-19-19.787V84.612c0-11.759,6.676-19.789,19-19.789Z" transform="translate(-147.715 -60.805)" fill="#fff"/>
        <rect id="Rectangle_40" data-name="Rectangle 40" width="115.684" height="184.727" transform="translate(7.068 34.679)" fill="url(#linear-gradient)"/>
        <path id="Path_174" data-name="Path 174" d="M238.312,405.111a8.083,8.083,0,1,0-8.083-8.083A8.082,8.082,0,0,0,238.312,405.111Z" transform="translate(-171.96 -160.373)" fill="#0f787a"/>
        <path id="Path_175" data-name="Path 175" d="M252.858,88.64c.265,0,.479-.378.479-.846h0c0-.466-.214-.845-.479-.845H208.6c-.265,0-.478.379-.478.845h0c0,.468.213.846.478.846Z" transform="translate(-165.169 -67.603)" fill="#0f787a"/>
      </g>
    </g>
    <rect id="Rectangle_41" data-name="Rectangle 41" width="98.651" height="98.651" transform="translate(125.341 165.941)" fill="#293737"/>
    <g id="Group_129" data-name="Group 129" transform="translate(101.06 76.877)">
      <g id="Group_126" data-name="Group 126" transform="translate(3.4 1.141)">
        <g id="Group_125" data-name="Group 125" transform="translate(0 20.517)">
          <path id="Path_176" data-name="Path 176" d="M334.139,125.43,249.744,225.623,218.1,205.585l-79.331,88.244h19.389l62.9-71.688,31.571,20.3,91.63-108.493Z" transform="translate(-138.769 -125.43)" fill="#7a8407"/>
        </g>
        <path id="Path_177" data-name="Path 177" d="M394.3,120.445l30.91,19.616,7.273-44.246Z" transform="translate(-217.266 -95.815)" fill="#7a8407"/>
      </g>
      <g id="Group_128" data-name="Group 128" transform="translate(0 0)">
        <g id="Group_127" data-name="Group 127" transform="translate(0 20.517)">
          <path id="Path_178" data-name="Path 178" d="M330.256,123.783l-83.808,99.511-31.7-19.949-80.89,89.979h19.413l63.9-72.829,31.976,20.124L340.372,132.3Z" transform="translate(-133.861 -123.783)" fill="#e0ee52"/>
        </g>
        <path id="Path_179" data-name="Path 179" d="M390.872,118.8l30.91,19.616,7.273-44.246Z" transform="translate(-212.813 -94.169)" fill="#e0ee52"/>
      </g>
      <path id="Path_180" data-name="Path 180" d="M445.643,94.169l2.375,1.141-.63,3.831-2.516-.285Z" transform="translate(-229.401 -94.169)" fill="#f27a00"/>
    </g>
    <g id="Group_135" data-name="Group 135" transform="translate(166.457 211.981)">
      <g id="Group_130" data-name="Group 130">
        <rect id="Rectangle_42" data-name="Rectangle 42" width="47.61" height="2.686" fill="#fff"/>
      </g>
      <g id="Group_131" data-name="Group 131" transform="translate(0 6.043)">
        <rect id="Rectangle_43" data-name="Rectangle 43" width="47.61" height="2.686" fill="#fff"/>
      </g>
      <g id="Group_134" data-name="Group 134" transform="translate(0 11.415)">
        <g id="Group_132" data-name="Group 132">
          <rect id="Rectangle_44" data-name="Rectangle 44" width="47.61" height="2.686" fill="#fff"/>
        </g>
        <g id="Group_133" data-name="Group 133" transform="translate(0 6.043)">
          <rect id="Rectangle_45" data-name="Rectangle 45" width="47.61" height="2.686" fill="#fff"/>
        </g>
      </g>
    </g>
    <g id="Group_141" data-name="Group 141" transform="translate(163.65 238.491)">
      <g id="Group_136" data-name="Group 136">
        <rect id="Rectangle_46" data-name="Rectangle 46" width="38.048" height="2.686" fill="#fff"/>
      </g>
      <g id="Group_137" data-name="Group 137" transform="translate(0 6.043)">
        <rect id="Rectangle_47" data-name="Rectangle 47" width="38.048" height="2.686" fill="#fff"/>
      </g>
      <g id="Group_140" data-name="Group 140" transform="translate(0 11.415)">
        <g id="Group_138" data-name="Group 138">
          <rect id="Rectangle_48" data-name="Rectangle 48" width="38.048" height="2.686" fill="#fff"/>
        </g>
        <g id="Group_139" data-name="Group 139" transform="translate(0 6.043)">
          <rect id="Rectangle_49" data-name="Rectangle 49" width="38.048" height="2.686" fill="#fff"/>
        </g>
      </g>
    </g>
    <path id="Path_199" data-name="Path 199" d="M0,0H99.9V64.125H0Z" transform="translate(123.977 95.582)" fill="#293737"/>
    <g id="Group_142" data-name="Group 142" transform="translate(128.133 106.507)">
      <path id="Path_181" data-name="Path 181" d="M200.321,201.012H173.314l-.375-9.138H200.7Z" transform="translate(-172.938 -153.812)" fill="url(#linear-gradient)"/>
      <path id="Path_182" data-name="Path 182" d="M244.223,189.215H217.967l-.188-35.744h27.759Z" transform="translate(-186.713 -142.015)" fill="#53b6b9"/>
      <path id="Path_183" data-name="Path 183" d="M287.016,184.136H261.51v-47.2h27.759Z" transform="translate(-200.147 -136.936)" fill="#46c634"/>
    </g>
    <g id="Group_146" data-name="Group 146" transform="translate(93.366 202.606)">
      <path id="Path_184" data-name="Path 184" d="M139.978,390.734c-2.178,15.58.206,31.722.206,31.581a7.177,7.177,0,0,1,1.737,0s2.407-18.938,2.971-25.26,0-6.743,0-6.743S142.157,375.154,139.978,390.734Z" transform="translate(-127.764 -308.839)" fill="#f7a57a"/>
      <path id="Path_185" data-name="Path 185" d="M136.2,331.757l-5.328,3.4-2.248-4.683,6.884-7.889Z" transform="translate(-124.559 -290.064)" fill="url(#linear-gradient-3)"/>
      <g id="Group_144" data-name="Group 144" transform="translate(29.072)">
        <path id="Path_186" data-name="Path 186" d="M175.405,290.02l-6.522,17.043-4.165-3.1,9.307-15.69Z" transform="translate(-164.718 -279.525)" fill="#fbb680"/>
        <g id="Group_143" data-name="Group 143" transform="translate(9.307)">
          <path id="Path_187" data-name="Path 187" d="M179.91,280.355a2.69,2.69,0,0,0-.96,1.661l-.8,2.379.254.448,1.127,1.3a1.715,1.715,0,0,1,.445-.89l1.774-1.986s2.911-3.394.195-4.546c1.594-3.153.453-3.072.453-3.072l-1.428,2.7Z" transform="translate(-178.151 -275.646)" fill="#fbb680"/>
          <path id="Path_188" data-name="Path 188" d="M180.415,281.968s-.587-.553-.064-1.868-.268-1.223-.268-1.223S177.9,284,178.6,284.588,180.415,281.968,180.415,281.968Z" transform="translate(-178.248 -276.638)" fill="#f7a57a"/>
        </g>
      </g>
      <path id="Path_189" data-name="Path 189" d="M148.27,317.089l1.953.152,6.636-7.735,3.584,4.079a108.3,108.3,0,0,1-8.1,12.635c-.274,1.307-1.7,14.456-1.7,14.456H139.139s1.832-9.649-1.405-15.018S148.27,317.089,148.27,317.089Z" transform="translate(-127.205 -286.047)" fill="url(#linear-gradient-4)"/>
      <path id="Path_190" data-name="Path 190" d="M147.309,390.734c-2.178,15.58.206,31.722.206,31.581a7.177,7.177,0,0,1,1.737,0s2.407-18.938,2.971-25.26,0-6.743,0-6.743S149.487,375.154,147.309,390.734Z" transform="translate(-130.016 -308.839)" fill="#fbb680"/>
      <g id="Group_145" data-name="Group 145" transform="translate(14.855 19.009)">
        <path id="Path_191" data-name="Path 191" d="M150.825,303.083,144.2,305.4l.653,4.947c.01.07.028.137.042.206.127.023.254.046.381.078.021,0,.041.012.062.018l.06.012a4.539,4.539,0,0,1,3.1,3.1,7.817,7.817,0,0,0,2.868-.037,2.875,2.875,0,0,0,1.507-.65C154.267,310.028,150.825,303.083,150.825,303.083Z" transform="translate(-144.197 -303.083)" fill="#fbb680"/>
      </g>
      <path id="Path_192" data-name="Path 192" d="M148.551,306.312a4.365,4.365,0,0,0-.136,3.81,6.4,6.4,0,0,1,.222,5.222,6.963,6.963,0,0,1-2.428,2.191,3.745,3.745,0,0,0-1.76,2.837c-.148,1.609-.3,3.585-1.679,4.059-4,1.378-5.466,1.245-6-2.089a6.775,6.775,0,0,1,.345-3.266,5.845,5.845,0,0,0-.123-4.378,7.624,7.624,0,0,1-.755-2.613,5.515,5.515,0,0,1,1.418-2.725,5.6,5.6,0,0,0,1.178-4.016,5.152,5.152,0,0,1,1.537-4.536c2.733-2.333,8.8,1.338,8.8,1.338A5.854,5.854,0,0,1,148.551,306.312Z" transform="translate(-126.897 -283.137)" fill="#122043"/>
      <path id="Path_193" data-name="Path 193" d="M126.822,333.969l-2.559,2.649c-1.7,1.76-2.225,4.21-.183,5.556l8.361,6.641-.768,1.439a3.508,3.508,0,0,0,.306,3.783l.884,1.157,1.956-6.714-6.062-7.569a1.453,1.453,0,0,1,.313-2.259h0Z" transform="translate(-122.756 -293.562)" fill="#fbb680"/>
      <path id="Path_194" data-name="Path 194" d="M150.051,354.5a28.075,28.075,0,0,1,1.686,8.8c0,2.433-2.107,20.784-2.107,20.784H138.675c.742-13.552-3.366-15.213-3.366-21.072,0-4.132,3.236-8.513,3.236-8.513Z" transform="translate(-126.612 -299.868)" fill="#002f4c"/>
      <path id="Path_195" data-name="Path 195" d="M140.325,436.5a2.028,2.028,0,0,0-.782,1.712c.176.96.425,3.208.425,3.208h.984l-.03-2.1c0-.137,2.112,2.1,2.47,2.1H148.6s.346-1.414-2.714-1.868A11.289,11.289,0,0,1,140.325,436.5Z" transform="translate(-127.906 -325.057)" fill="#122043"/>
      <path id="Path_196" data-name="Path 196" d="M148.359,436.5a2.026,2.026,0,0,0-.782,1.712c.175.96.424,3.208.424,3.208h.984l-.03-2.1c0-.137,2.112,2.1,2.469,2.1h5.211s.346-1.414-2.714-1.868A11.289,11.289,0,0,1,148.359,436.5Z" transform="translate(-130.374 -325.057)" fill="#002b49"/>
      <path id="Path_197" data-name="Path 197" d="M139.559,393.854" transform="translate(-127.918 -311.958)" fill="#ffc630"/>
    </g>
  </g>
</svg>
